<?xml version="1.0" encoding="UTF-8" standalone="no"?>
<svg
   width="256"
   height="256"
   viewBox="0 0 256 256"
   fill="none"
   version="1.1"
   id="svg3636"
   sodipodi:docname="Community Badge Template.svg"
   inkscape:version="1.4-dev (1:1.2.0-alpha1+devel+202306042011+2f4084e185)"
   inkscape:export-filename="C:\Users\Marie\Documents\Fedora Badges\Updated Badges Templates\Templates\Content Badge Template.png"
   inkscape:export-xdpi="96"
   inkscape:export-ydpi="96"
   xml:space="preserve"
   xmlns:inkscape="http://www.inkscape.org/namespaces/inkscape"
   xmlns:sodipodi="http://sodipodi.sourceforge.net/DTD/sodipodi-0.dtd"
   xmlns:xlink="http://www.w3.org/1999/xlink"
   xmlns="http://www.w3.org/2000/svg"
   xmlns:svg="http://www.w3.org/2000/svg"
   xmlns:rdf="http://www.w3.org/1999/02/22-rdf-syntax-ns#"
   xmlns:cc="http://creativecommons.org/ns#"
   xmlns:dc="http://purl.org/dc/elements/1.1/"><metadata
     id="metadata193"><rdf:RDF><cc:Work
         rdf:about=""><dc:format>image/svg+xml</dc:format><dc:type
           rdf:resource="http://purl.org/dc/dcmitype/StillImage" /></cc:Work></rdf:RDF></metadata><defs
     id="defs3640"><pattern
       inkscape:collect="always"
       xlink:href="#pattern12164"
       id="pattern12201"
       patternTransform="matrix(2.3423364,0,0,2.3364928,-2331.9235,-225.15354)" /><pattern
       inkscape:collect="always"
       xlink:href="#pattern31438"
       id="pattern12164"
       patternTransform="matrix(2.3306494,0,0,2.3306494,-2320.0261,-224.0842)" /><pattern
       patternTransform="matrix(2.6606426,0,0,2.6606426,-3854.0903,374.21998)"
       id="pattern31438"
       xlink:href="#pattern6268-1"
       inkscape:collect="always" /><pattern
       patternTransform="translate(-722.21719,2884)"
       id="pattern6268-1"
       xlink:href="#pattern6259-0"
       inkscape:collect="always" /><pattern
       patternTransform="translate(-722,2924)"
       id="pattern6259-0"
       xlink:href="#pattern6356-2"
       inkscape:collect="always" /><pattern
       patternTransform="translate(-722,2884)"
       id="pattern6356-2"
       xlink:href="#pattern6352-4"
       inkscape:collect="always" /><pattern
       patternTransform="translate(-902,2884)"
       id="pattern6352-4"
       xlink:href="#pattern6176-5"
       inkscape:collect="always" /><pattern
       patternTransform="translate(-902,2844)"
       id="pattern6176-5"
       xlink:href="#pattern4998-9"
       inkscape:collect="always" /><pattern
       patternTransform="translate(-902,244)"
       id="pattern4998-9"
       xlink:href="#pattern8888-3"
       inkscape:collect="always" /><pattern
       patternTransform="translate(-902,244)"
       id="pattern8888-3"
       xlink:href="#pattern8884-5"
       inkscape:collect="always" /><pattern
       patternTransform="translate(-904,0)"
       id="pattern8884-5"
       xlink:href="#pattern8791-8"
       inkscape:collect="always" /><pattern
       patternTransform="translate(-724,0)"
       id="pattern8791-8"
       xlink:href="#pattern8787-8"
       inkscape:collect="always" /><pattern
       patternTransform="translate(-536,0)"
       id="pattern8787-8"
       xlink:href="#pattern8783-79"
       inkscape:collect="always" /><pattern
       patternTransform="translate(-360,0)"
       id="pattern8783-79"
       xlink:href="#pattern8775-4"
       inkscape:collect="always" /><pattern
       patternTransform="translate(-180,0)"
       id="pattern8775-4"
       xlink:href="#Wavywhite-1"
       inkscape:collect="always" /><pattern
       inkscape:collect="always"
       patternUnits="userSpaceOnUse"
       width="30.066020"
       height="5.1805778"
       id="Wavywhite-1"
       inkscape:stockid="Wavy white"><path
         style="fill:white;stroke:none;"
         d="M 7.597,0.061 C 5.079,-0.187 2.656,0.302 -0.01,1.788 L -0.01,3.061 C 2.773,1.431 5.173,1.052 7.472,1.280 C 9.770,1.508 11.969,2.361 14.253,3.218 C 18.820,4.931 23.804,6.676 30.066,3.061 L 30.062,1.788 C 23.622,5.497 19.246,3.770 14.691,2.061 C 12.413,1.207 10.115,0.311 7.597,0.061 z "
         id="path8532-7" /></pattern><pattern
       inkscape:collect="always"
       xlink:href="#pattern12201"
       id="pattern4032"
       patternTransform="matrix(2.7840991,0,0,2.7771534,-2796.6975,-289.96155)" /><pattern
       inkscape:collect="always"
       xlink:href="#pattern12164"
       id="pattern4034"
       patternTransform="matrix(2.3423364,0,0,2.3364928,-2331.9235,-225.15354)" /><pattern
       inkscape:collect="always"
       xlink:href="#pattern31438"
       id="pattern4036"
       patternTransform="matrix(2.3306494,0,0,2.3306494,-2320.0261,-224.0842)" /><pattern
       patternTransform="matrix(2.6606426,0,0,2.6606426,-3854.0903,374.21998)"
       id="pattern4038"
       xlink:href="#pattern6268-1"
       inkscape:collect="always" /><pattern
       patternTransform="translate(-722.21719,2884)"
       id="pattern4040"
       xlink:href="#pattern6259-0"
       inkscape:collect="always" /><pattern
       patternTransform="translate(-722,2924)"
       id="pattern4042"
       xlink:href="#pattern6356-2"
       inkscape:collect="always" /><pattern
       patternTransform="translate(-722,2884)"
       id="pattern4044"
       xlink:href="#pattern6352-4"
       inkscape:collect="always" /><pattern
       patternTransform="translate(-902,2884)"
       id="pattern4046"
       xlink:href="#pattern6176-5"
       inkscape:collect="always" /><pattern
       patternTransform="translate(-902,2844)"
       id="pattern4048"
       xlink:href="#pattern4998-9"
       inkscape:collect="always" /><pattern
       patternTransform="translate(-902,244)"
       id="pattern4050"
       xlink:href="#pattern8888-3"
       inkscape:collect="always" /><pattern
       patternTransform="translate(-902,244)"
       id="pattern4052"
       xlink:href="#pattern8884-5"
       inkscape:collect="always" /><pattern
       patternTransform="translate(-904,0)"
       id="pattern4054"
       xlink:href="#pattern8791-8"
       inkscape:collect="always" /><pattern
       patternTransform="translate(-724,0)"
       id="pattern4056"
       xlink:href="#pattern8787-8"
       inkscape:collect="always" /><pattern
       patternTransform="translate(-536,0)"
       id="pattern4058"
       xlink:href="#pattern8783-79"
       inkscape:collect="always" /><pattern
       patternTransform="translate(-360,0)"
       id="pattern4060"
       xlink:href="#pattern8775-4"
       inkscape:collect="always" /><pattern
       patternTransform="translate(-180,0)"
       id="pattern4062"
       xlink:href="#Wavywhite-1"
       inkscape:collect="always" /><clipPath
       clipPathUnits="userSpaceOnUse"
       id="clipPath9795"><g
         inkscape:label="Clip"
         id="use9797"
         style="display:inline"
         sodipodi:insensitive="true"><path
           d="m 38,127.94 v 0.005 64.29784 0.009 0.009 C 38.03794,206.49569 49.583415,218 63.813015,218 h 1.85e-4 1.85e-4 9.2e-5 1.85e-4 1.84e-4 1.85e-4 9.2e-5 1.85e-4 1.84e-4 1.85e-4 9.2e-5 1.85e-4 1.84e-4 1.85e-4 9.2e-5 1.85e-4 1.85e-4 1.84e-4 9.3e-5 1.84e-4 1.85e-4 1.84e-4 1.85e-4 9.2e-5 1.85e-4 1.85e-4 1.84e-4 9.2e-5 1.85e-4 1.85e-4 1.84e-4 9.3e-5 1.84e-4 1.85e-4 1.84e-4 9.3e-5 1.84e-4 1.85e-4 1.85e-4 9.2e-5 1.85e-4 1.84e-4 1.85e-4 9.2e-5 1.85e-4 1.84e-4 1.85e-4 1.85e-4 9.2e-5 1.84e-4 1.85e-4 1.85e-4 9.2e-5 1.85e-4 1.84e-4 1.85e-4 9.2e-5 1.85e-4 1.84e-4 1.85e-4 9.2e-5 1.85e-4 1.85e-4 1.84e-4 9.2e-5 1.85e-4 1.85e-4 1.84e-4 1.85e-4 9.2e-5 1.85e-4 1.84e-4 1.85e-4 9.2e-5 1.85e-4 1.85e-4 1.84e-4 9.3e-5 1.84e-4 1.85e-4 1.84e-4 9.3e-5 1.84e-4 1.85e-4 1.85e-4 9.2e-5 1.84e-4 1.85e-4 1.85e-4 9.2e-5 1.85e-4 1.84e-4 1.85e-4 1.84e-4 9.3e-5 1.84e-4 1.85e-4 1.85e-4 9.2e-5 1.85e-4 1.84e-4 1.85e-4 9.2e-5 1.85e-4 1.84e-4 1.85e-4 9.2e-5 1.85e-4 1.84e-4 1.85e-4 9.2e-5 1.85e-4 1.85e-4 1.84e-4 1.85e-4 9.2e-5 1.85e-4 1.84e-4 1.85e-4 9.2e-5 1.85e-4 1.85e-4 1.84e-4 9.2e-5 1.85e-4 1.85e-4 1.84e-4 9.3e-5 1.84e-4 1.85e-4 1.84e-4 9.3e-5 1.84e-4 1.85e-4 1.85e-4 9.2e-5 1.85e-4 1.84e-4 1.85e-4 1.84e-4 9.3e-5 1.84e-4 1.85e-4 1.85e-4 9.2e-5 1.84e-4 1.85e-4 1.85e-4 9.2e-5 1.85e-4 1.84e-4 1.85e-4 9.2e-5 1.85e-4 1.84e-4 1.85e-4 9.2e-5 1.85e-4 1.85e-4 1.84e-4 1.85e-4 9.2e-5 1.85e-4 1.84e-4 1.85e-4 9.2e-5 1.85e-4 1.84e-4 1.85e-4 9.2e-5 1.85e-4 1.85e-4 1.84e-4 9.3e-5 1.84e-4 1.85e-4 1.84e-4 9.3e-5 1.84e-4 1.85e-4 1.85e-4 9.2e-5 1.84e-4 1.85e-4 1.85e-4 1.84e-4 9.3e-5 1.84e-4 1.85e-4 1.84e-4 9.3e-5 1.84e-4 1.85e-4 1.85e-4 9.2e-5 1.85e-4 1.84e-4 1.85e-4 9.2e-5 1.85e-4 1.84e-4 1.85e-4 9.2e-5 1.85e-4 1.84e-4 1.85e-4 1.85e-4 9.2e-5 1.85e-4 1.84e-4 1.85e-4 9.2e-5 1.85e-4 1.84e-4 1.85e-4 9.2e-5 1.85e-4 1.85e-4 1.84e-4 9.2e-5 1.85e-4 1.85e-4 1.84e-4 9.3e-5 1.84e-4 1.85e-4 1.84e-4 9.3e-5 1.84e-4 1.85e-4 1.85e-4 1.84e-4 9.3e-5 1.84e-4 1.85e-4 1.84e-4 9.3e-5 1.84e-4 1.85e-4 1.85e-4 9.2e-5 1.84e-4 1.85e-4 1.85e-4 9.2e-5 1.85e-4 1.84e-4 1.85e-4 9.2e-5 1.85e-4 1.84e-4 1.85e-4 9.2e-5 1.85e-4 1.85e-4 1.84e-4 1.85e-4 9.2e-5 1.85e-4 1.84e-4 1.85e-4 9.2e-5 1.85e-4 1.84e-4 1.85e-4 9.2e-5 1.85e-4 1.85e-4 1.84e-4 9.3e-5 1.84e-4 1.85e-4 1.84e-4 9.3e-5 1.84e-4 1.85e-4 1.85e-4 1.84e-4 9.2e-5 1.85e-4 1.85e-4 1.84e-4 9.3e-5 1.84e-4 1.85e-4 1.84e-4 9.3e-5 1.84e-4 1.85e-4 1.85e-4 9.2e-5 1.85e-4 1.84e-4 1.85e-4 9.2e-5 1.85e-4 1.84e-4 1.85e-4 1.85e-4 9.2e-5 1.84e-4 1.85e-4 1.85e-4 9.2e-5 1.85e-4 1.84e-4 1.85e-4 9.2e-5 1.85e-4 1.84e-4 1.85e-4 9.2e-5 1.85e-4 1.85e-4 1.84e-4 9.2e-5 1.85e-4 1.85e-4 1.84e-4 9.3e-5 1.84e-4 1.85e-4 1.84e-4 1.85e-4 9.2e-5 1.85e-4 1.85e-4 1.84e-4 9.3e-5 1.84e-4 1.85e-4 1.84e-4 9.3e-5 1.84e-4 1.85e-4 1.85e-4 9.2e-5 1.84e-4 1.85e-4 1.85e-4 9.2e-5 1.85e-4 1.84e-4 1.85e-4 9.2e-5 1.85e-4 1.84e-4 1.85e-4 1.85e-4 9.2e-5 1.85e-4 1.84e-4 1.85e-4 9.2e-5 1.85e-4 1.84e-4 1.85e-4 9.2e-5 1.85e-4 1.84e-4 1.85e-4 9.2e-5 1.85e-4 1.85e-4 1.84e-4 9.3e-5 1.84e-4 1.85e-4 1.84e-4 1.85e-4 9.2e-5 1.85e-4 1.85e-4 1.84e-4 9.2e-5 1.85e-4 1.85e-4 1.84e-4 9.3e-5 1.84e-4 1.85e-4 1.84e-4 9.3e-5 1.84e-4 1.85e-4 1.85e-4 9.2e-5 1.85e-4 1.84e-4 1.85e-4 9.2e-5 1.85e-4 1.84e-4 1.85e-4 1.85e-4 9.2e-5 1.84e-4 1.85e-4 1.85e-4 9.2e-5 1.85e-4 1.84e-4 1.85e-4 9.2e-5 1.85e-4 1.84e-4 1.85e-4 9.2e-5 1.85e-4 1.85e-4 1.84e-4 9.2e-5 1.85e-4 1.85e-4 1.84e-4 9.3e-5 1.84e-4 1.85e-4 1.84e-4 1.85e-4 9.2e-5 1.85e-4 1.85e-4 1.84e-4 9.3e-5 1.84e-4 1.85e-4 1.84e-4 9.3e-5 1.84e-4 1.85e-4 1.85e-4 9.2e-5 1.84e-4 1.85e-4 1.85e-4 9.2e-5 1.85e-4 1.84e-4 1.85e-4 1.84e-4 9.3e-5 1.84e-4 1.85e-4 1.85e-4 9.2e-5 1.85e-4 1.84e-4 1.85e-4 9.2e-5 1.85e-4 1.84e-4 1.85e-4 9.2e-5 1.85e-4 1.84e-4 1.85e-4 9.2e-5 1.85e-4 1.85e-4 1.84e-4 1.85e-4 9.2e-5 1.85e-4 1.84e-4 1.85e-4 9.2e-5 1.85e-4 1.85e-4 1.84e-4 9.2e-5 1.85e-4 1.85e-4 1.84e-4 9.3e-5 1.84e-4 1.85e-4 1.84e-4 9.3e-5 1.84e-4 1.85e-4 1.85e-4 9.2e-5 1.85e-4 1.84e-4 1.85e-4 1.84e-4 9.3e-5 1.84e-4 1.85e-4 1.85e-4 9.2e-5 1.84e-4 1.85e-4 1.85e-4 9.2e-5 1.85e-4 1.84e-4 1.85e-4 9.2e-5 1.85e-4 1.84e-4 1.85e-4 9.2e-5 1.85e-4 1.85e-4 1.84e-4 9.2e-5 1.85e-4 1.85e-4 1.84e-4 1.85e-4 64.131413 0.005 C 177.73169,217.9695 218,177.68923 218,128 218,78.296924 177.70308,38.000001 128,38.000001 c -49.687754,0 -89.969908,40.266831 -90,89.939999 z"
           fill="#ffffff"
           stroke="#51a2da"
           stroke-width="13.8461"
           id="path485"
           style="fill:#3c6eb4;fill-opacity:1;stroke:none"
           inkscape:label="BASE " /></g></clipPath><radialGradient
       id="paint1_radial_121_116"
       cx="0"
       cy="0"
       r="1"
       gradientUnits="userSpaceOnUse"
       gradientTransform="matrix(197.04413,125.92583,-143.69059,224.84176,88.75413,60.123506)"><stop
         stop-color="white"
         id="stop1303" /><stop
         offset="0.5"
         stop-color="white"
         stop-opacity="0.4915"
         id="stop1305" /><stop
         offset="1"
         stop-color="white"
         stop-opacity="0"
         id="stop1307" /></radialGradient><radialGradient
       id="paint2_radial_121_116"
       cx="0"
       cy="0"
       r="1"
       gradientUnits="userSpaceOnUse"
       gradientTransform="matrix(233.42044,10.243236,-11.707993,266.79898,84.51447,71.000338)"><stop
         stop-color="white"
         id="stop1310" /><stop
         offset="0.5"
         stop-color="white"
         stop-opacity="0.4915"
         id="stop1312" /><stop
         offset="1"
         stop-color="white"
         stop-opacity="0"
         id="stop1314" /></radialGradient><radialGradient
       id="paint3_radial_121_116"
       cx="0"
       cy="0"
       r="1"
       gradientUnits="userSpaceOnUse"
       gradientTransform="matrix(207.25773,-108.17722,123.49321,236.60178,86.732055,82.65904)"><stop
         stop-color="white"
         id="stop1317" /><stop
         offset="0.5"
         stop-color="white"
         stop-opacity="0.4915"
         id="stop1319" /><stop
         offset="1"
         stop-color="white"
         stop-opacity="0"
         id="stop1321" /></radialGradient><radialGradient
       id="paint4_radial_121_116"
       cx="0"
       cy="0"
       r="1"
       gradientUnits="userSpaceOnUse"
       gradientTransform="matrix(125.5626,-197.61477,224.94276,142.92656,94.407066,91.607312)"><stop
         stop-color="white"
         id="stop1324" /><stop
         offset="0.5"
         stop-color="white"
         stop-opacity="0.4915"
         id="stop1326" /><stop
         offset="1"
         stop-color="white"
         stop-opacity="0"
         id="stop1328" /></radialGradient><radialGradient
       id="paint5_radial_121_116"
       cx="0"
       cy="0"
       r="1"
       gradientUnits="userSpaceOnUse"
       gradientTransform="matrix(10.2135,-234.09636,266.03363,11.606905,105.26248,95.850661)"><stop
         stop-color="white"
         id="stop1331" /><stop
         offset="0.5"
         stop-color="white"
         stop-opacity="0.4915"
         id="stop1333" /><stop
         offset="1"
         stop-color="white"
         stop-opacity="0"
         id="stop1335" /></radialGradient><radialGradient
       id="paint6_radial_121_116"
       cx="0"
       cy="0"
       r="1"
       gradientUnits="userSpaceOnUse"
       gradientTransform="matrix(-107.86328,-207.85845,236.50147,-122.7269,116.88607,93.626648)"><stop
         stop-color="white"
         id="stop1338" /><stop
         offset="0.5"
         stop-color="white"
         stop-opacity="0.4915"
         id="stop1340" /><stop
         offset="1"
         stop-color="white"
         stop-opacity="0"
         id="stop1342" /></radialGradient><radialGradient
       id="paint7_radial_121_116"
       cx="0"
       cy="0"
       r="1"
       gradientUnits="userSpaceOnUse"
       gradientTransform="matrix(-197.04326,-125.92721,143.69216,-224.84076,125.80608,85.936391)"><stop
         stop-color="white"
         id="stop1345" /><stop
         offset="0.5"
         stop-color="white"
         stop-opacity="0.4915"
         id="stop1347" /><stop
         offset="1"
         stop-color="white"
         stop-opacity="0"
         id="stop1349" /></radialGradient><radialGradient
       id="paint8_radial_121_116"
       cx="0"
       cy="0"
       r="1"
       gradientUnits="userSpaceOnUse"
       gradientTransform="matrix(-233.42039,-10.244416,11.709306,-266.79805,130.03744,75.044147)"><stop
         stop-color="white"
         id="stop1352" /><stop
         offset="0.5"
         stop-color="white"
         stop-opacity="0.4915"
         id="stop1354" /><stop
         offset="1"
         stop-color="white"
         stop-opacity="0"
         id="stop1356" /></radialGradient><radialGradient
       id="paint9_radial_121_116"
       cx="0"
       cy="0"
       r="1"
       gradientUnits="userSpaceOnUse"
       gradientTransform="matrix(-207.25793,108.17685,-123.49279,-236.60199,127.81686,63.389725)"><stop
         stop-color="white"
         id="stop1359" /><stop
         offset="0.5"
         stop-color="white"
         stop-opacity="0.4915"
         id="stop1361" /><stop
         offset="1"
         stop-color="white"
         stop-opacity="0"
         id="stop1363" /></radialGradient><radialGradient
       id="paint10_radial_121_116"
       cx="0"
       cy="0"
       r="1"
       gradientUnits="userSpaceOnUse"
       gradientTransform="matrix(-125.56087,197.61585,-224.94401,-142.92458,120.14629,54.447787)"><stop
         stop-color="white"
         id="stop1366" /><stop
         offset="0.5"
         stop-color="white"
         stop-opacity="0.4915"
         id="stop1368" /><stop
         offset="1"
         stop-color="white"
         stop-opacity="0"
         id="stop1370" /></radialGradient><radialGradient
       id="paint11_radial_121_116"
       cx="0"
       cy="0"
       r="1"
       gradientUnits="userSpaceOnUse"
       gradientTransform="matrix(-10.213536,234.0972,-266.03363,-11.606905,109.29601,50.197078)"><stop
         stop-color="white"
         id="stop1373" /><stop
         offset="0.5"
         stop-color="white"
         stop-opacity="0.4915"
         id="stop1375" /><stop
         offset="1"
         stop-color="white"
         stop-opacity="0"
         id="stop1377" /></radialGradient><radialGradient
       id="paint12_radial_121_116"
       cx="0"
       cy="0"
       r="1"
       gradientUnits="userSpaceOnUse"
       gradientTransform="matrix(107.86473,207.85769,-236.50062,122.72855,97.673287,52.424342)"><stop
         stop-color="white"
         id="stop1380" /><stop
         offset="0.5"
         stop-color="white"
         stop-opacity="0.4915"
         id="stop1382" /><stop
         offset="1"
         stop-color="white"
         stop-opacity="0"
         id="stop1384" /></radialGradient><radialGradient
       inkscape:collect="always"
       xlink:href="#paint1_radial_121_116"
       id="radialGradient12119"
       gradientUnits="userSpaceOnUse"
       gradientTransform="matrix(269.33246,172.12344,-196.40544,307.32803,82.119448,90.526232)"
       cx="0"
       cy="0"
       r="1" /><radialGradient
       id="radialGradient12127"
       cx="0"
       cy="0"
       r="1"
       gradientUnits="userSpaceOnUse"
       gradientTransform="matrix(197.04413,125.92583,-143.69059,224.84176,88.75413,60.123506)"><stop
         stop-color="white"
         id="stop12121" /><stop
         offset="0.5"
         stop-color="white"
         stop-opacity="0.4915"
         id="stop12123" /><stop
         offset="1"
         stop-color="white"
         stop-opacity="0"
         id="stop12125" /></radialGradient><radialGradient
       inkscape:collect="always"
       xlink:href="#paint2_radial_121_116"
       id="radialGradient12129"
       gradientUnits="userSpaceOnUse"
       gradientTransform="matrix(319.05391,14.001107,-16.00323,364.67783,76.324408,105.39337)"
       cx="0"
       cy="0"
       r="1" /><radialGradient
       id="radialGradient12137"
       cx="0"
       cy="0"
       r="1"
       gradientUnits="userSpaceOnUse"
       gradientTransform="matrix(233.42044,10.243236,-11.707993,266.79898,84.51447,71.000338)"><stop
         stop-color="white"
         id="stop12131" /><stop
         offset="0.5"
         stop-color="white"
         stop-opacity="0.4915"
         id="stop12133" /><stop
         offset="1"
         stop-color="white"
         stop-opacity="0"
         id="stop12135" /></radialGradient><radialGradient
       inkscape:collect="always"
       xlink:href="#paint3_radial_121_116"
       id="radialGradient12139"
       gradientUnits="userSpaceOnUse"
       gradientTransform="matrix(283.29306,-147.86351,168.79838,323.40237,79.355548,121.32924)"
       cx="0"
       cy="0"
       r="1" /><radialGradient
       id="radialGradient12147"
       cx="0"
       cy="0"
       r="1"
       gradientUnits="userSpaceOnUse"
       gradientTransform="matrix(207.25773,-108.17722,123.49321,236.60178,86.732055,82.65904)"><stop
         stop-color="white"
         id="stop12141" /><stop
         offset="0.5"
         stop-color="white"
         stop-opacity="0.4915"
         id="stop12143" /><stop
         offset="1"
         stop-color="white"
         stop-opacity="0"
         id="stop12145" /></radialGradient><radialGradient
       inkscape:collect="always"
       xlink:href="#paint4_radial_121_116"
       id="radialGradient12149"
       gradientUnits="userSpaceOnUse"
       gradientTransform="matrix(171.62695,-270.11244,307.46608,195.36112,89.846238,133.5603)"
       cx="0"
       cy="0"
       r="1" /><radialGradient
       id="radialGradient12157"
       cx="0"
       cy="0"
       r="1"
       gradientUnits="userSpaceOnUse"
       gradientTransform="matrix(125.5626,-197.61477,224.94276,142.92656,94.407066,91.607312)"><stop
         stop-color="white"
         id="stop12151" /><stop
         offset="0.5"
         stop-color="white"
         stop-opacity="0.4915"
         id="stop12153" /><stop
         offset="1"
         stop-color="white"
         stop-opacity="0"
         id="stop12155" /></radialGradient><radialGradient
       inkscape:collect="always"
       xlink:href="#paint5_radial_121_116"
       id="radialGradient12159"
       gradientUnits="userSpaceOnUse"
       gradientTransform="matrix(13.960462,-319.9778,363.6317,15.865056,104.68411,139.36038)"
       cx="0"
       cy="0"
       r="1" /><radialGradient
       id="radialGradient12167"
       cx="0"
       cy="0"
       r="1"
       gradientUnits="userSpaceOnUse"
       gradientTransform="matrix(10.2135,-234.09636,266.03363,11.606905,105.26248,95.850661)"><stop
         stop-color="white"
         id="stop12161" /><stop
         offset="0.5"
         stop-color="white"
         stop-opacity="0.4915"
         id="stop12163" /><stop
         offset="1"
         stop-color="white"
         stop-opacity="0"
         id="stop12165" /></radialGradient><radialGradient
       inkscape:collect="always"
       xlink:href="#paint6_radial_121_116"
       id="radialGradient12169"
       gradientUnits="userSpaceOnUse"
       gradientTransform="matrix(-147.4344,-284.11416,323.26526,-167.75094,120.57198,136.32045)"
       cx="0"
       cy="0"
       r="1" /><radialGradient
       id="radialGradient12177"
       cx="0"
       cy="0"
       r="1"
       gradientUnits="userSpaceOnUse"
       gradientTransform="matrix(-107.86328,-207.85845,236.50147,-122.7269,116.88607,93.626648)"><stop
         stop-color="white"
         id="stop12171" /><stop
         offset="0.5"
         stop-color="white"
         stop-opacity="0.4915"
         id="stop12173" /><stop
         offset="1"
         stop-color="white"
         stop-opacity="0"
         id="stop12175" /></radialGradient><radialGradient
       inkscape:collect="always"
       xlink:href="#paint7_radial_121_116"
       id="radialGradient12179"
       gradientUnits="userSpaceOnUse"
       gradientTransform="matrix(-269.33127,-172.12532,196.40759,-307.32666,132.76441,125.80893)"
       cx="0"
       cy="0"
       r="1" /><radialGradient
       id="radialGradient12187"
       cx="0"
       cy="0"
       r="1"
       gradientUnits="userSpaceOnUse"
       gradientTransform="matrix(-197.04326,-125.92721,143.69216,-224.84076,125.80608,85.936391)"><stop
         stop-color="white"
         id="stop12181" /><stop
         offset="0.5"
         stop-color="white"
         stop-opacity="0.4915"
         id="stop12183" /><stop
         offset="1"
         stop-color="white"
         stop-opacity="0"
         id="stop12185" /></radialGradient><radialGradient
       inkscape:collect="always"
       xlink:href="#paint8_radial_121_116"
       id="radialGradient12189"
       gradientUnits="userSpaceOnUse"
       gradientTransform="matrix(-319.05384,-14.00272,16.005025,-364.67655,138.54811,110.92071)"
       cx="0"
       cy="0"
       r="1" /><radialGradient
       id="radialGradient12197"
       cx="0"
       cy="0"
       r="1"
       gradientUnits="userSpaceOnUse"
       gradientTransform="matrix(-233.42039,-10.244416,11.709306,-266.79805,130.03744,75.044147)"><stop
         stop-color="white"
         id="stop12191" /><stop
         offset="0.5"
         stop-color="white"
         stop-opacity="0.4915"
         id="stop12193" /><stop
         offset="1"
         stop-color="white"
         stop-opacity="0"
         id="stop12195" /></radialGradient><radialGradient
       inkscape:collect="always"
       xlink:href="#paint9_radial_121_116"
       id="radialGradient12199"
       gradientUnits="userSpaceOnUse"
       gradientTransform="matrix(-283.29333,147.863,-168.7978,-323.40266,135.51288,94.990702)"
       cx="0"
       cy="0"
       r="1" /><radialGradient
       id="radialGradient12207"
       cx="0"
       cy="0"
       r="1"
       gradientUnits="userSpaceOnUse"
       gradientTransform="matrix(-207.25793,108.17685,-123.49279,-236.60199,127.81686,63.389725)"><stop
         stop-color="white"
         id="stop12201" /><stop
         offset="0.5"
         stop-color="white"
         stop-opacity="0.4915"
         id="stop12203" /><stop
         offset="1"
         stop-color="white"
         stop-opacity="0"
         id="stop12205" /></radialGradient><radialGradient
       inkscape:collect="always"
       xlink:href="#paint10_radial_121_116"
       id="radialGradient12209"
       gradientUnits="userSpaceOnUse"
       gradientTransform="matrix(-171.62459,270.11392,-307.46779,-195.35841,125.02825,82.768292)"
       cx="0"
       cy="0"
       r="1" /><radialGradient
       id="radialGradient12217"
       cx="0"
       cy="0"
       r="1"
       gradientUnits="userSpaceOnUse"
       gradientTransform="matrix(-125.56087,197.61585,-224.94401,-142.92458,120.14629,54.447787)"><stop
         stop-color="white"
         id="stop12211" /><stop
         offset="0.5"
         stop-color="white"
         stop-opacity="0.4915"
         id="stop12213" /><stop
         offset="1"
         stop-color="white"
         stop-opacity="0"
         id="stop12215" /></radialGradient><radialGradient
       inkscape:collect="always"
       xlink:href="#paint11_radial_121_116"
       id="radialGradient12219"
       gradientUnits="userSpaceOnUse"
       gradientTransform="matrix(-13.960511,319.97895,-363.6317,-15.865056,110.1974,76.958152)"
       cx="0"
       cy="0"
       r="1" /><radialGradient
       id="radialGradient12227"
       cx="0"
       cy="0"
       r="1"
       gradientUnits="userSpaceOnUse"
       gradientTransform="matrix(-10.213536,234.0972,-266.03363,-11.606905,109.29601,50.197078)"><stop
         stop-color="white"
         id="stop12221" /><stop
         offset="0.5"
         stop-color="white"
         stop-opacity="0.4915"
         id="stop12223" /><stop
         offset="1"
         stop-color="white"
         stop-opacity="0"
         id="stop12225" /></radialGradient><radialGradient
       inkscape:collect="always"
       xlink:href="#paint12_radial_121_116"
       id="radialGradient12229"
       gradientUnits="userSpaceOnUse"
       gradientTransform="matrix(147.43638,284.11312,-323.2641,167.75319,94.310708,80.002522)"
       cx="0"
       cy="0"
       r="1" /><radialGradient
       id="radialGradient12237"
       cx="0"
       cy="0"
       r="1"
       gradientUnits="userSpaceOnUse"
       gradientTransform="matrix(107.86473,207.85769,-236.50062,122.72855,97.673287,52.424342)"><stop
         stop-color="white"
         id="stop12231" /><stop
         offset="0.5"
         stop-color="white"
         stop-opacity="0.4915"
         id="stop12233" /><stop
         offset="1"
         stop-color="white"
         stop-opacity="0"
         id="stop12235" /></radialGradient><clipPath
       clipPathUnits="userSpaceOnUse"
       id="clipPath466"><use
         x="0"
         y="0"
         xlink:href="#g462"
         id="use468" /></clipPath><radialGradient
       id="paint0_radial_460_276"
       cx="0"
       cy="0"
       r="1"
       gradientUnits="userSpaceOnUse"
       gradientTransform="translate(270.776 227.761) rotate(90.5192) scale(236.98 264.15)"><stop
         stop-color="white"
         stop-opacity="0.42"
         id="stop5046" /><stop
         offset="0.842823"
         stop-color="white"
         stop-opacity="0"
         id="stop5048" /></radialGradient><radialGradient
       id="paint0_radial_460_276-5"
       cx="0.17153789"
       cy="0.57779789"
       r="1"
       gradientUnits="userSpaceOnUse"
       gradientTransform="matrix(-2.147424,236.97027,-264.13916,-2.3936284,280.86024,96.5783)"
       fx="0.17153789"
       fy="0.57779789"><stop
         stop-color="white"
         stop-opacity="0.42"
         id="stop5752"
         offset="0"
         style="stop-color:#ffffff;stop-opacity:0.56;" /><stop
         offset="0.842823"
         stop-color="white"
         stop-opacity="0"
         id="stop5754" /></radialGradient><pattern
       inkscape:collect="always"
       xlink:href="#pattern7788-1"
       id="pattern1993"
       patternTransform="matrix(3.2542019,0,0,3.2541541,-3290.5406,-361.75015)" /><pattern
       inkscape:collect="always"
       xlink:href="#pattern12201-4"
       id="pattern7788-1"
       patternTransform="matrix(2.784656,0,0,2.7846151,-2797.2825,-291.08453)" /><pattern
       inkscape:collect="always"
       xlink:href="#pattern12164-7"
       id="pattern12201-4"
       patternTransform="matrix(2.3423364,0,0,2.3364928,-2331.9235,-225.15354)" /><pattern
       inkscape:collect="always"
       xlink:href="#pattern31438-6"
       id="pattern12164-7"
       patternTransform="matrix(2.3306494,0,0,2.3306494,-2320.0261,-224.0842)" /><pattern
       patternTransform="matrix(2.6606426,0,0,2.6606426,-3854.0903,374.21998)"
       id="pattern31438-6"
       xlink:href="#pattern6268-1-5"
       inkscape:collect="always" /><pattern
       patternTransform="translate(-722.21719,2884)"
       id="pattern6268-1-5"
       xlink:href="#pattern6259-0-6"
       inkscape:collect="always" /><pattern
       patternTransform="translate(-722,2924)"
       id="pattern6259-0-6"
       xlink:href="#pattern6356-2-1"
       inkscape:collect="always" /><pattern
       patternTransform="translate(-722,2884)"
       id="pattern6356-2-1"
       xlink:href="#pattern6352-4-3"
       inkscape:collect="always" /><pattern
       patternTransform="translate(-902,2884)"
       id="pattern6352-4-3"
       xlink:href="#pattern6176-5-3"
       inkscape:collect="always" /><pattern
       patternTransform="translate(-902,2844)"
       id="pattern6176-5-3"
       xlink:href="#pattern4998-9-3"
       inkscape:collect="always" /><pattern
       patternTransform="translate(-902,244)"
       id="pattern4998-9-3"
       xlink:href="#pattern8888-3-0"
       inkscape:collect="always" /><pattern
       patternTransform="translate(-902,244)"
       id="pattern8888-3-0"
       xlink:href="#pattern8884-5-8"
       inkscape:collect="always" /><pattern
       patternTransform="translate(-904,0)"
       id="pattern8884-5-8"
       xlink:href="#pattern8791-8-3"
       inkscape:collect="always" /><pattern
       patternTransform="translate(-724,0)"
       id="pattern8791-8-3"
       xlink:href="#pattern8787-8-3"
       inkscape:collect="always" /><pattern
       patternTransform="translate(-536,0)"
       id="pattern8787-8-3"
       xlink:href="#pattern8783-79-0"
       inkscape:collect="always" /><pattern
       patternTransform="translate(-360,0)"
       id="pattern8783-79-0"
       xlink:href="#pattern8775-4-2"
       inkscape:collect="always" /><pattern
       patternTransform="translate(-180,0)"
       id="pattern8775-4-2"
       xlink:href="#Wavywhite-1-2"
       inkscape:collect="always" /><pattern
       inkscape:collect="always"
       patternUnits="userSpaceOnUse"
       width="30.066020"
       height="5.1805778"
       id="Wavywhite-1-2"
       inkscape:stockid="Wavy white"><path
         style="fill:white;stroke:none;"
         d="M 7.597,0.061 C 5.079,-0.187 2.656,0.302 -0.01,1.788 L -0.01,3.061 C 2.773,1.431 5.173,1.052 7.472,1.280 C 9.770,1.508 11.969,2.361 14.253,3.218 C 18.820,4.931 23.804,6.676 30.066,3.061 L 30.062,1.788 C 23.622,5.497 19.246,3.770 14.691,2.061 C 12.413,1.207 10.115,0.311 7.597,0.061 z "
         id="path8532-7-5" /></pattern></defs><sodipodi:namedview
     id="namedview3638"
     pagecolor="#ffffff"
     bordercolor="#666666"
     borderopacity="1.0"
     inkscape:showpageshadow="2"
     inkscape:pageopacity="0.0"
     inkscape:pagecheckerboard="0"
     inkscape:deskcolor="#d1d1d1"
     showgrid="false"
     inkscape:zoom="2.8242188"
     inkscape:cx="128"
     inkscape:cy="128"
     inkscape:window-width="1920"
     inkscape:window-height="1007"
     inkscape:window-x="3840"
     inkscape:window-y="0"
     inkscape:window-maximized="1"
     inkscape:current-layer="layer3"
     inkscape:document-rotation="0" /><g
     inkscape:groupmode="layer"
     id="layer2"
     inkscape:label="BASE-BORDER"
     style="display:inline;opacity:1"
     sodipodi:insensitive="true"><path
       d="m 22.268729,127.80367 -0.05399,80.5086 c -0.01029,15.34579 10.812662,25.44758 24.0744,25.44758 H 128.0558 c 58.40008,0 105.70611,-47.35313 105.70611,-105.73876 0,-58.412837 -47.33324,-105.780933 -105.73809,-105.780935 -58.404855,-1e-6 -105.716213,47.600449 -105.755088,105.563515 z"
       style="display:inline;fill:#db3279;fill-opacity:1;fill-rule:nonzero;stroke:#db3279;stroke-width:35.2533;stroke-linecap:round;stroke-linejoin:round;stroke-dasharray:none;stroke-opacity:1;paint-order:markers stroke fill"
       id="path1018"
       inkscape:export-filename="/home/mnordin/Documents/Fedora Design/F35 Release Party/fedora_logo_blue.png"
       inkscape:export-xdpi="300"
       inkscape:export-ydpi="300"
       sodipodi:nodetypes="sssssss"
       inkscape:label="BASE - BORDER" /></g><g
     id="g464"
     clip-path="url(#clipPath466)"
     transform="translate(-0.4087075,0.2679395)"
     style="display:inline"
     inkscape:label="BODY"
     inkscape:groupmode="layer"><g
       inkscape:label="Clip"
       id="g462"
       inkscape:groupmode="layer"
       sodipodi:insensitive="true"><path
         d="m 128.42232,21.972215 c -58.394645,0 -105.718341,47.315036 -105.755081,105.689775 h -0.01634 v 81.84519 h 0.01634 c 0.02585,13.25425 10.768868,23.98473 24.030607,23.98473 h 81.766664 c 58.40007,-0.0381 105.7061,-47.35313 105.7061,-105.73876 0,-58.412839 -47.33323,-105.780935 -105.75373,-105.780935 z"
         style="display:inline;fill:#f9dde9;fill-opacity:1;fill-rule:nonzero;stroke:none;stroke-width:35.2533;stroke-linecap:round;stroke-linejoin:round;stroke-dasharray:none;stroke-opacity:1;paint-order:markers stroke fill"
         id="path14"
         inkscape:export-filename="/home/mnordin/Documents/Fedora Design/F35 Release Party/fedora_logo_blue.png"
         inkscape:export-xdpi="300"
         inkscape:export-ydpi="300"
         sodipodi:nodetypes="cccccscscc"
         inkscape:label="BACKGROUND" /></g><g
       inkscape:groupmode="layer"
       id="layer3"
       inkscape:label="PATTERNS"
       transform="translate(0.4087075,-0.2679395)"
       style="display:inline"><path
         inkscape:export-ydpi="90"
         inkscape:export-xdpi="90"
         inkscape:export-filename="/home/duffy/Documents/Work/Projects/FedBadges/Badges/junior-editor.png"
         inkscape:connector-curvature="0"
         d="m 233.75884,128.00489 c 0,-58.411727 -47.35015,-105.76491 -105.76123,-105.76491 -58.383589,0 -105.715288,47.314144 -105.757604,105.69043 v -0.005 81.8449 0.005 c 0.03307,13.25414 10.780779,23.98471 24.043717,23.98471 0.03436,0 0.07339,-0.005 0.114992,-0.005 v 0.005 h 81.634545 v 0 c 58.40029,-0.0326 105.72673,-47.35997 105.72673,-105.75513 z"
         id="path1991"
         style="display:none;opacity:0.334;fill:url(#pattern1993);fill-opacity:1;stroke:none;stroke-width:1.391"
         inkscape:label="WAVES pattern" /><path
         d="m 108.1553,254.38779 18.30702,-115.8687 17.36476,115.8687 H 108.1553 77.867764 29.81204 -7.878887 V 240.37583 187.69584 153.20502 112.78587 79.641981 21.707629 h 47.786688 44.690638 27.460271 33.92216 28.53742 45.09432 51.82499 v 57.934352 35.029899 45.00004 34.35643 60.35944 h -51.82499 -47.5174 l -43.74838,-115.8687 91.26578,115.8687 H 271.4376 L 129.96205,137.44144 271.4376,194.02835 V 159.67192 L 130.9043,135.82471 271.4376,114.67188 V 79.641981 L 130.9043,133.9382 271.4376,21.707629 H 219.61261 L 129.69276,132.59126 174.51829,21.707629 H 145.98087 L 128.34683,131.91729 112.05871,21.707629 H 84.598439 L 126.46232,131.91729 39.907801,21.707629 H -7.878887 L 125.25078,132.99544 -7.878887,79.641981 V 112.78587 L 123.90484,134.20799 -7.878887,153.20502 v 34.49082 L 124.03924,136.094 -7.878887,240.37583 v 14.01196 H 29.81204 L 124.98149,137.57633 77.867764,254.38779 Z"
         fill="url(#paint0_radial_460_276)"
         id="path5748"
         style="display:inline;fill:url(#paint0_radial_460_276-5);stroke-width:0;stroke-dasharray:none"
         inkscape:label="RAYS pattern"
         sodipodi:insensitive="true" /></g><g
       inkscape:groupmode="layer"
       id="layer4"
       inkscape:label="GRAPHIC"
       style="display:inline" /><g
       inkscape:groupmode="layer"
       id="layer5"
       inkscape:label="TYPOGRAPHY"
       transform="translate(-18.44502,27.505028)"
       style="display:inline"><g
         id="g1037"
         transform="matrix(1.0071467,0,0,1.0071467,-0.08480234,1.9356315)"><text
           xml:space="preserve"
           style="font-style:normal;font-variant:normal;font-weight:normal;font-stretch:normal;font-size:43.7671px;line-height:1.25;font-family:Comfortaa;-inkscape-font-specification:'Comfortaa, Normal';font-variant-ligatures:normal;font-variant-caps:normal;font-variant-numeric:normal;font-variant-east-asian:normal;display:inline;fill:#db3279;fill-opacity:1;stroke:#db3279;stroke-width:10.2137;stroke-linecap:round;stroke-linejoin:round;stroke-dasharray:none;stroke-opacity:1"
           x="121.96081"
           y="117.31709"
           id="text3496"
           inkscape:label="OUTER"><tspan
             sodipodi:role="line"
             id="tspan3494"
             x="121.96081"
             y="117.31709"
             style="fill:#db3279;stroke:#db3279;stroke-width:10.2137">37</tspan></text><text
           xml:space="preserve"
           style="font-style:normal;font-variant:normal;font-weight:normal;font-stretch:normal;font-size:43.7671px;line-height:1.25;font-family:Comfortaa;-inkscape-font-specification:'Comfortaa, Normal';font-variant-ligatures:normal;font-variant-caps:normal;font-variant-numeric:normal;font-variant-east-asian:normal;display:inline;fill:#ed97bb;fill-opacity:1;stroke:#ed97bb;stroke-width:5.48183;stroke-linecap:round;stroke-dasharray:none;stroke-opacity:1"
           x="121.92385"
           y="117.24281"
           id="text3496-9"
           inkscape:label="MIDDLE"><tspan
             sodipodi:role="line"
             id="tspan3494-61"
             x="121.92385"
             y="117.24281"
             style="fill:#ed97bb;stroke:#ed97bb;stroke-width:5.48183">37</tspan></text><text
           xml:space="preserve"
           style="font-style:normal;font-variant:normal;font-weight:normal;font-stretch:normal;font-size:43.7671px;line-height:1.25;font-family:Comfortaa;-inkscape-font-specification:'Comfortaa, Normal';font-variant-ligatures:normal;font-variant-caps:normal;font-variant-numeric:normal;font-variant-east-asian:normal;display:inline;fill:#ffffff;fill-opacity:1;stroke:#ffffff;stroke-width:0.693653;stroke-dasharray:none;stroke-opacity:1"
           x="121.66503"
           y="117.12128"
           id="text3496-8"
           inkscape:label="INNER"><tspan
             sodipodi:role="line"
             id="tspan3494-6"
             x="121.66503"
             y="117.12128"
             style="stroke-width:0.693653">37</tspan></text></g></g></g><g
     inkscape:groupmode="layer"
     id="layer6"
     inkscape:label="INSTRUCTIONS"><text
       xml:space="preserve"
       style="font-style:normal;font-variant:normal;font-weight:600;font-stretch:normal;font-size:5.33333px;line-height:1.25;font-family:Comfortaa;-inkscape-font-specification:'Comfortaa, Semi-Bold';font-variant-ligatures:normal;font-variant-caps:normal;font-variant-numeric:normal;font-variant-east-asian:normal;fill:#294172;stroke:none;stroke-width:3;stroke-linecap:round;stroke-linejoin:round;stroke-dasharray:none;stroke-opacity:1;paint-order:markers stroke fill"
       x="269.03793"
       y="76.749367"
       id="text7255"><tspan
         sodipodi:role="line"
         x="269.03793"
         y="76.749367"
         id="tspan7659">Usage Instructions:</tspan><tspan
         sodipodi:role="line"
         x="269.03793"
         y="83.416031"
         id="tspan3919" /><tspan
         sodipodi:role="line"
         x="269.03793"
         y="90.082695"
         id="tspan7837">1. delete all layers and sub layers that are not required </tspan><tspan
         sodipodi:role="line"
         x="269.03793"
         y="96.749352"
         id="tspan8016">    in your final design (e.g. delete typography layer or </tspan><tspan
         sodipodi:role="line"
         x="269.03793"
         y="103.41602"
         id="tspan8018">    instructions layer by right click-&gt; delete layer),</tspan><tspan
         sodipodi:role="line"
         x="269.03793"
         y="110.08268"
         id="tspan8022">    before uploading the svg to the issue</tspan><tspan
         sodipodi:role="line"
         x="269.03793"
         y="116.74934"
         id="tspan3913" /><tspan
         sodipodi:role="line"
         x="269.03793"
         y="123.41601"
         id="tspan8024">2. unlock the &quot;Clip&quot; layer when moving graphic/typography </tspan><tspan
         sodipodi:role="line"
         x="269.03793"
         y="130.08266"
         id="tspan8682">    or patterns</tspan><tspan
         sodipodi:role="line"
         x="269.03793"
         y="136.74933"
         id="tspan3915" /><tspan
         sodipodi:role="line"
         x="269.03793"
         y="143.41599"
         id="tspan8684">3. In case you mistakenly misalign the Background vector while </tspan><tspan
         sodipodi:role="line"
         x="269.03793"
         y="150.08264"
         id="tspan9061">     it is unlocked when you are moving the design,</tspan><tspan
         sodipodi:role="line"
         x="269.03793"
         y="156.74931"
         id="tspan8686">    simply align it to the center of the page using Ctrl+Shift+A</tspan><tspan
         sodipodi:role="line"
         x="269.03793"
         y="163.41597"
         id="tspan8874">     and selecting appropriate (middle) alignment</tspan><tspan
         sodipodi:role="line"
         x="269.03793"
         y="170.08264"
         id="tspan3917" /><tspan
         sodipodi:role="line"
         x="269.03793"
         y="176.7493"
         id="tspan11141">4. Do not unlock Base-Border layer</tspan><tspan
         sodipodi:role="line"
         x="269.03793"
         y="183.41597"
         id="tspan8688"> </tspan></text></g></svg>
